{
  "WindowSize" : 1024,
  "WindowSizePower" : 10,
  "WindowsPerSecond" : 43,
  "WindowFFTBins" : 512,
  "DestinationSampleRate" : 44100,
  "NormFunc" : "Hann",
  "WindowsPerBlock" : 128,
	"InputDirectory" : "/home/stefan/input_test/master_2/",
	"SingleCycle" : true,
	"SingleCycleRefSong" : "/home/stefan/input_test/master_2/Bolero - Maurice Ravel.mp3",


  "TestOutDir" : "/home/stefan/test_out/",
  "DebugOutput" : true,
  "DumpWindowData" : false,
  "DumpRawData" : false,
  "DumpFFTData" : false,
  "DumpFeatureData" : false,
  "DumpBlockData" : false,
  "DumpSingleData" : true,
  "Version" : "0.1"
}
